{"properties": [
  {
    "name": "spring.jpa.hibernate.naming-strategy",
    "type": "java.lang.String",
    "description": "A description for 'spring.jpa.hibernate.naming-strategy'"
  },
  {
    "name": "app.cors.allowed-origins",
    "type": "java.lang.String",
    "description": "A description for 'app.cors.allowed-origins'"
  }
]}